<?xml version="1.0" encoding="UTF-8" standalone="no"?>
<!DOCTYPE svg PUBLIC "-//W3C//DTD SVG 1.1//EN" "http://www.w3.org/Graphics/SVG/1.1/DTD/svg11.dtd">
<svg xmlns:dc="http://purl.org/dc/elements/1.1/" xmlns:xl="http://www.w3.org/1999/xlink" version="1.1" xmlns="http://www.w3.org/2000/svg" viewBox="1 3 736 548" width="736" height="548">
  <defs>
    <font-face font-family="Roboto" font-size="10" panose-1="2 0 0 0 0 0 0 0 0 0" units-per-em="1000" underline-position="-73.24219" underline-thickness="48.828125" slope="0" x-height="528.3203" cap-height="710.9375" ascent="927.7344" descent="-244.14062" font-weight="400">
      <font-face-src>
        <font-face-name name="Roboto-Regular"/>
      </font-face-src>
    </font-face>
    <clipPath id="inner_stroke_clip_path">
      <path d="M 302.7551 457.8225 L 420.7551 457.8225 L 420.7551 550.8225 L 302.7551 550.8225 Z"/>
    </clipPath>
    <font-face font-family="Roboto" font-size="12" panose-1="2 0 0 0 0 0 0 0 0 0" units-per-em="1000" underline-position="-73.24219" underline-thickness="48.828125" slope="0" x-height="528.3203" cap-height="710.9375" ascent="927.7344" descent="-244.14062" font-weight="400">
      <font-face-src>
        <font-face-name name="Roboto-Regular"/>
      </font-face-src>
    </font-face>
    <clipPath id="inner_stroke_clip_path_2">
      <path d="M 163 346.8225 L 287 346.8225 L 287 402.8225 L 163 402.8225 Z"/>
    </clipPath>
    <clipPath id="inner_stroke_clip_path_3">
      <path d="M 441.3055 346.8225 L 565.3055 346.8225 L 565.3055 402.8225 L 441.3055 402.8225 Z"/>
    </clipPath>
    <clipPath id="inner_stroke_clip_path_4">
      <path d="M 302.12197 346.8225 L 426.12197 346.8225 L 426.12197 402.8225 L 302.12197 402.8225 Z"/>
    </clipPath>
    <clipPath id="inner_stroke_clip_path_5">
      <path d="M 162 93 L 298 93 L 298 180 L 162 180 Z"/>
    </clipPath>
    <clipPath id="inner_stroke_clip_path_6">
      <path d="M 438 200 L 574 200 L 574 287 L 438 287 Z"/>
    </clipPath>
    <clipPath id="inner_stroke_clip_path_7">
      <path d="M 438 93 L 574 93 L 574 180 L 438 180 Z"/>
    </clipPath>
  </defs>
  <metadata> Produced by OmniGraffle 7.8 
    <dc:date>2018-07-26 23:32:01 +0000</dc:date>
  </metadata>
  <g id="diagram2c" fill-opacity="1" stroke-dasharray="none" stroke="none" stroke-opacity="1" fill="none">
    <title>diagram2c</title>
    <g id="diagram2c: Layer 1">
      <title>Layer 1</title>
      <g id="Graphic_14">
        <title>zone external - grey</title>
        <path d="M 124 4 L 614 4 L 614 327 L 124 327 Z" stroke="#616161" stroke-linecap="round" stroke-linejoin="round" stroke-dasharray="1.0,3.0" stroke-width="1"/>
        <text transform="translate(134 19)" fill="#757575">
          <tspan font-family="Roboto" font-size="10" font-weight="400" fill="#757575" x="0" y="9">Region 1</tspan>
        </text>
      </g>
      <g id="Graphic_35">
        <title>zone internal - purple</title>
        <rect x="418" y="50" width="176" height="257" fill="#ede7f7"/>
        <text transform="translate(428 65)" fill="#757575">
          <tspan font-family="Roboto" font-size="10" font-weight="400" fill="#757575" x="0" y="9">Zone B</tspan>
        </text>
      </g>
      <g id="Graphic_34">
        <title>zone internal - blue</title>
        <rect x="143" y="50" width="176" height="181" fill="#e1f6fe"/>
        <text transform="translate(153 65)" fill="#757575">
          <tspan font-family="Roboto" font-size="10" font-weight="400" fill="#757575" x="0" y="9">Zone A</tspan>
        </text>
      </g>
      <g id="Group_29">
        <title>application</title>
        <g id="Graphic_31">
          <rect x="302.7551" y="457.8225" width="118" height="93" fill="white"/>
          <rect x="302.7551" y="457.8225" width="118" height="93" stroke="#dfdfdf" stroke-linecap="round" stroke-linejoin="round" stroke-width="2" clip-path="url(#inner_stroke_clip_path)"/>
          <text transform="translate(306.7551 513.8225)" fill="#212121">
            <tspan font-family="Roboto" font-size="12" font-weight="400" fill="#212121" x="8.787109" y="11">Client application</tspan>
          </text>
        </g>
        <g id="Graphic_30">
          <path d="M 368.9551 483.6225 L 354.5551 483.6225 C 353.5651 483.6225 352.7551 484.4325 352.7551 485.4225 L 352.7551 496.2225 C 352.7551 497.2125 353.5651 498.0225 354.5551 498.0225 L 368.9551 498.0225 C 369.9451 498.0225 370.7551 497.2125 370.7551 496.2225 L 370.7551 485.4225 C 370.7551 484.4325 369.9451 483.6225 368.9551 483.6225 Z M 364.4551 496.2225 L 354.5551 496.2225 L 354.5551 492.6225 L 364.4551 492.6225 Z M 364.4551 491.7225 L 354.5551 491.7225 L 354.5551 488.1225 L 364.4551 488.1225 Z M 368.9551 496.2225 L 365.3551 496.2225 L 365.3551 488.1225 L 368.9551 488.1225 Z" fill="#616161"/>
        </g>
      </g>
      <g id="Graphic_28">
        <rect x="163" y="346.8225" width="124" height="56" fill="#e3f3ec"/>
        <rect x="163" y="346.8225" width="124" height="56" stroke="#dfdfdf" stroke-linecap="round" stroke-linejoin="round" stroke-width="2" clip-path="url(#inner_stroke_clip_path_2)"/>
        <text transform="translate(192 367.8225)" fill="#212121">
          <tspan font-family="Roboto" font-size="12" font-weight="400" fill="#212121" x=".09277344" y="11">IP address Z</tspan>
        </text>
      </g>
      <g id="Graphic_27">
        <rect x="441.3055" y="346.8225" width="124" height="56" fill="#e3f3ec"/>
        <rect x="441.3055" y="346.8225" width="124" height="56" stroke="#dfdfdf" stroke-linecap="round" stroke-linejoin="round" stroke-width="2" clip-path="url(#inner_stroke_clip_path_3)"/>
        <text transform="translate(469.3055 367.8225)" fill="#212121">
          <tspan font-family="Roboto" font-size="12" font-weight="400" fill="#212121" x=".42285156" y="11">IP address X</tspan>
        </text>
      </g>
      <g id="Graphic_37">
        <rect x="302.12197" y="346.8225" width="124" height="56" fill="#e3f3ec"/>
        <rect x="302.12197" y="346.8225" width="124" height="56" stroke="#dfdfdf" stroke-linecap="round" stroke-linejoin="round" stroke-width="2" clip-path="url(#inner_stroke_clip_path_4)"/>
        <text transform="translate(331.12197 367.8225)" fill="#212121">
          <tspan font-family="Roboto" font-size="12" font-weight="400" fill="#212121" x=".08105469" y="11">IP address Y</tspan>
        </text>
      </g>
      <g id="Group_67">
        <title>Cloud SQL</title>
        <g id="Graphic_77">
          <rect x="162" y="93" width="136" height="87" fill="white"/>
          <rect x="162" y="93" width="136" height="87" stroke="#dfdfdf" stroke-linecap="round" stroke-linejoin="round" stroke-width="2" clip-path="url(#inner_stroke_clip_path_5)"/>
        </g>
        <g id="Graphic_76">
          <rect x="178" y="141" width="104" height="1" fill="#dfdfdf"/>
        </g>
        <g id="Graphic_75">
          <text transform="translate(206 154)" fill="#757575">
            <tspan font-family="Roboto" font-size="10" font-weight="400" fill="#757575" x="0" y="9">Cloud SQL</tspan>
          </text>
        </g>
        <g id="Graphic_74">
          <text transform="translate(177 112)" fill="#212121">
            <tspan font-family="Roboto" font-size="12" font-weight="400" fill="#212121" x=".37695312" y="11">New failover replica</tspan>
          </text>
        </g>
        <g id="Group_68">
          <title>Cloud SQL</title>
          <g id="Graphic_73">
            <title>Fill-1</title>
            <path d="M 197.7959 159.07965 L 193.67875 151.92003 C 193.34865 151.34842 192.75042 151 192.13482 151 L 183.90037 151 C 183.24063 151 182.66448 151.38677 182.35628 151.91957 L 178.23914 159.06494 C 177.90935 159.6364 177.93157 160.3215 178.23867 160.85492 L 182.35597 168.04725 C 182.68592 168.61871 183.2843 169 183.8999 169 L 192.1342 169 C 192.79425 169 193.37025 168.58412 193.67844 168.05132 L 197.7956 160.8914 C 198.12554 160.31977 198.10315 159.61292 197.7959 159.07965" fill="#4285f4"/>
          </g>
          <g id="Graphic_72">
            <title>Fill-4</title>
            <path d="M 191.14133 157.16304 L 188.12187 156.12609 L 184.9196 158.5456 L 186.92182 160.54783 L 184.91318 160.74348 L 186.78815 162.61845 L 184.89001 162.85637 L 191.0338 169 L 192.1343 169 C 192.7942 169 193.3702 168.58412 193.67855 168.05132 L 196.72728 162.749 Z" fill="black" fill-opacity=".07"/>
          </g>
          <g id="Graphic_71">
            <title>Fill-7</title>
            <path d="M 189.88725 157.82598 L 189.886 157.8252 L 188.01744 158.90394 L 186.14888 157.8252 L 186.14763 157.82598 L 186.14763 157.82441 L 186.14888 157.8252 L 188.01744 156.74645 L 189.886 157.8252 L 189.88725 157.82441 Z M 188.01744 155.34041 L 184.887 157.14777 L 184.887 158.5455 L 188.01744 160.35286 L 191.14788 158.5455 L 191.14788 157.14777 Z" fill="white"/>
          </g>
          <g id="Graphic_70">
            <title>Fill-9</title>
            <path d="M 184.88702 159.33511 L 184.88702 160.73285 L 188.01746 162.5402 L 191.1479 160.73285 L 191.1479 159.33511 L 188.01746 161.14247 Z" fill="white"/>
          </g>
          <g id="Graphic_69">
            <title>Fill-11</title>
            <path d="M 184.88702 161.45453 L 184.88702 162.85226 L 188.01746 164.65962 L 191.1479 162.85226 L 191.1479 161.45453 L 188.01746 163.26188 Z" fill="white"/>
          </g>
        </g>
      </g>
      <g id="Group_79">
        <title>Cloud SQL</title>
        <g id="Graphic_89">
          <rect x="438" y="200" width="136" height="87" fill="white"/>
          <rect x="438" y="200" width="136" height="87" stroke="#dfdfdf" stroke-linecap="round" stroke-linejoin="round" stroke-width="2" clip-path="url(#inner_stroke_clip_path_6)"/>
        </g>
        <g id="Graphic_88">
          <rect x="454" y="248" width="104" height="1" fill="#dfdfdf"/>
        </g>
        <g id="Graphic_87">
          <text transform="translate(482 261)" fill="#757575">
            <tspan font-family="Roboto" font-size="10" font-weight="400" fill="#757575" x="0" y="9">Cloud SQL</tspan>
          </text>
        </g>
        <g id="Graphic_86">
          <text transform="translate(454 219)" fill="#212121">
            <tspan font-family="Roboto" font-size="12" font-weight="400" fill="#212121" x="7.316406" y="11">New read replica</tspan>
          </text>
        </g>
        <g id="Group_80">
          <title>Cloud SQL</title>
          <g id="Graphic_85">
            <title>Fill-1</title>
            <path d="M 473.7959 266.07965 L 469.67875 258.92003 C 469.34865 258.34842 468.7504 258 468.1348 258 L 459.90037 258 C 459.24063 258 458.6645 258.38677 458.3563 258.91957 L 454.23914 266.06494 C 453.90935 266.6364 453.93157 267.3215 454.23867 267.85492 L 458.35597 275.04725 C 458.6859 275.6187 459.2843 276 459.8999 276 L 468.1342 276 C 468.79425 276 469.37025 275.58412 469.67844 275.05132 L 473.7956 267.8914 C 474.12554 267.31977 474.10315 266.61292 473.7959 266.07965" fill="#4285f4"/>
          </g>
          <g id="Graphic_84">
            <title>Fill-4</title>
            <path d="M 467.14133 264.16304 L 464.1219 263.1261 L 460.9196 265.5456 L 462.9218 267.54783 L 460.9132 267.74348 L 462.78815 269.61845 L 460.89 269.85637 L 467.0338 276 L 468.1343 276 C 468.7942 276 469.3702 275.58412 469.67855 275.05132 L 472.7273 269.749 Z" fill="black" fill-opacity=".07"/>
          </g>
          <g id="Graphic_83">
            <title>Fill-7</title>
            <path d="M 465.88725 264.82598 L 465.886 264.8252 L 464.01744 265.90394 L 462.1489 264.8252 L 462.14763 264.82598 L 462.14763 264.8244 L 462.1489 264.8252 L 464.01744 263.74645 L 465.886 264.8252 L 465.88725 264.8244 Z M 464.01744 262.3404 L 460.887 264.14777 L 460.887 265.5455 L 464.01744 267.35286 L 467.1479 265.5455 L 467.1479 264.14777 Z" fill="white"/>
          </g>
          <g id="Graphic_82">
            <title>Fill-9</title>
            <path d="M 460.887 266.3351 L 460.887 267.73285 L 464.01746 269.5402 L 467.1479 267.73285 L 467.1479 266.3351 L 464.01746 268.14247 Z" fill="white"/>
          </g>
          <g id="Graphic_81">
            <title>Fill-11</title>
            <path d="M 460.887 268.45453 L 460.887 269.85226 L 464.01746 271.65962 L 467.1479 269.85226 L 467.1479 268.45453 L 464.01746 270.26188 Z" fill="white"/>
          </g>
        </g>
      </g>
      <g id="Group_90">
        <title>Cloud SQL</title>
        <g id="Graphic_100">
          <rect x="438" y="93" width="136" height="87" fill="white"/>
          <rect x="438" y="93" width="136" height="87" stroke="#dfdfdf" stroke-linecap="round" stroke-linejoin="round" stroke-width="2" clip-path="url(#inner_stroke_clip_path_7)"/>
        </g>
        <g id="Graphic_99">
          <rect x="454" y="141" width="104" height="1" fill="#dfdfdf"/>
        </g>
        <g id="Graphic_98">
          <text transform="translate(482 154)" fill="#757575">
            <tspan font-family="Roboto" font-size="10" font-weight="400" fill="#757575" x="0" y="9">Cloud SQL</tspan>
          </text>
        </g>
        <g id="Graphic_97">
          <text transform="translate(454 105)" fill="#212121">
            <tspan font-family="Roboto" font-size="12" font-weight="400" fill="#212121" x="18.305664" y="11">New primary </tspan>
            <tspan font-family="Roboto" font-size="12" font-weight="400" fill="#212121" x="29.286133" y="25">instance</tspan>
          </text>
        </g>
        <g id="Group_91">
          <title>Cloud SQL</title>
          <g id="Graphic_96">
            <title>Fill-1</title>
            <path d="M 473.7959 159.07965 L 469.67875 151.92003 C 469.34865 151.34842 468.7504 151 468.1348 151 L 459.90037 151 C 459.24063 151 458.6645 151.38677 458.3563 151.91957 L 454.23914 159.06494 C 453.90935 159.6364 453.93157 160.3215 454.23867 160.85492 L 458.35597 168.04725 C 458.6859 168.61871 459.2843 169 459.8999 169 L 468.1342 169 C 468.79425 169 469.37025 168.58412 469.67844 168.05132 L 473.7956 160.8914 C 474.12554 160.31977 474.10315 159.61292 473.7959 159.07965" fill="#4285f4"/>
          </g>
          <g id="Graphic_95">
            <title>Fill-4</title>
            <path d="M 467.14133 157.16304 L 464.1219 156.12609 L 460.9196 158.5456 L 462.9218 160.54783 L 460.9132 160.74348 L 462.78815 162.61845 L 460.89 162.85637 L 467.0338 169 L 468.1343 169 C 468.7942 169 469.3702 168.58412 469.67855 168.05132 L 472.7273 162.749 Z" fill="black" fill-opacity=".07"/>
          </g>
          <g id="Graphic_94">
            <title>Fill-7</title>
            <path d="M 465.88725 157.82598 L 465.886 157.8252 L 464.01744 158.90394 L 462.1489 157.8252 L 462.14763 157.82598 L 462.14763 157.82441 L 462.1489 157.8252 L 464.01744 156.74645 L 465.886 157.8252 L 465.88725 157.82441 Z M 464.01744 155.34041 L 460.887 157.14777 L 460.887 158.5455 L 464.01744 160.35286 L 467.1479 158.5455 L 467.1479 157.14777 Z" fill="white"/>
          </g>
          <g id="Graphic_93">
            <title>Fill-9</title>
            <path d="M 460.887 159.33511 L 460.887 160.73285 L 464.01746 162.5402 L 467.1479 160.73285 L 467.1479 159.33511 L 464.01746 161.14247 Z" fill="white"/>
          </g>
          <g id="Graphic_92">
            <title>Fill-11</title>
            <path d="M 460.887 161.45453 L 460.887 162.85226 L 464.01746 164.65962 L 467.1479 162.85226 L 467.1479 161.45453 L 464.01746 163.26188 Z" fill="white"/>
          </g>
        </g>
      </g>
      <g id="Graphic_104">
        <path d="M 224.5 180 L 224.5 336.8225 L 224.5 346.8225 C 224.5 347.09863 224.72386 347.3225 225 347.3225 C 225.27614 347.3225 225.5 347.09863 225.5 346.8225 L 225.5 336.8225 L 225.5 180 C 225.5 179.72386 225.27614 179.5 225 179.5 C 224.72386 179.5 224.5 179.72386 224.5 180 Z" fill="#616161"/>
      </g>
      <g id="Graphic_105">
        <path d="M 224.5 402.8225 L 224.5 412.8225 L 224.5 504.32185 C 224.5 504.598 224.72386 504.82185 225 504.82185 L 292.8551 504.82185 C 293.13124 504.82185 293.3551 504.598 293.3551 504.32185 C 293.3551 504.0457 293.13124 503.82185 292.8551 503.82185 L 225 503.82185 L 225.5 504.32185 L 225.5 412.8225 L 225.5 402.8225 C 225.5 402.54634 225.27614 402.3225 225 402.3225 C 224.72386 402.3225 224.5 402.54634 224.5 402.8225 Z M 300.8551 503.82185 L 292.8551 503.82185 L 292.8551 504.82185 L 300.8551 504.82185 Z M 296.50155 500.6754 L 300.50155 504.6754 L 300.50155 503.9683 L 296.50155 507.9683 L 297.20866 508.6754 L 301.20866 504.6754 L 301.5622 504.32185 L 301.20866 503.9683 L 297.20866 499.9683 Z" fill="#616161"/>
      </g>
      <g id="Graphic_106">
        <path d="M 363.62197 402.8225 L 363.62197 412.8225 L 363.62197 447.9225 C 363.62197 448.19863 363.84582 448.4225 364.12197 448.4225 C 364.3981 448.4225 364.62197 448.19863 364.62197 447.9225 L 364.62197 412.8225 L 364.62197 402.8225 C 364.62197 402.54634 364.3981 402.3225 364.12197 402.3225 C 363.84582 402.3225 363.62197 402.54634 363.62197 402.8225 Z M 364.62197 455.9225 L 364.62197 447.9225 L 363.62197 447.9225 L 363.62197 455.9225 Z M 367.7684 451.56893 L 363.7684 455.56893 L 364.4755 455.56893 L 360.4755 451.56893 L 359.7684 452.27604 L 363.7684 456.27604 L 364.12197 456.6296 L 364.4755 456.27604 L 368.4755 452.27604 Z" fill="#616161"/>
      </g>
      <g id="Graphic_107">
        <path d="M 364.62197 346.8601 L 364.62197 337.6124 L 364.62197 138.02604 L 364.12197 138.48842 L 428.1 138.48842 C 428.37614 138.48842 428.6 138.2814 428.6 138.02604 C 428.6 137.77067 428.37614 137.56365 428.1 137.56365 L 364.12197 137.56365 C 363.84582 137.56365 363.62197 137.77067 363.62197 138.02604 L 363.62197 337.6124 L 363.62197 346.8601 C 363.62197 347.11547 363.84582 347.3225 364.12197 347.3225 C 364.3981 347.3225 364.62197 347.11547 364.62197 346.8601 Z M 436.1 137.56365 L 428.1 137.56365 L 428.1 138.48842 L 436.1 138.48842 Z M 431.74645 134.65391 L 435.74645 138.353 L 435.74645 137.69908 L 431.74645 141.39817 L 432.45355 142.05208 L 436.45355 138.353 L 436.8071 138.02604 L 436.45355 137.69908 L 432.45355 134 Z" fill="#616161"/>
      </g>
      <g id="Graphic_108">
        <path d="M 502.8055 287 L 502.8055 336.8225 L 502.8055 346.8225 C 502.8055 347.09863 503.0294 347.3225 503.3055 347.3225 C 503.58166 347.3225 503.8055 347.09863 503.8055 346.8225 L 503.8055 336.8225 L 503.8055 287 C 503.8055 286.72386 503.58166 286.5 503.3055 286.5 C 503.0294 286.5 502.8055 286.72386 502.8055 287 Z" fill="#616161"/>
      </g>
      <g id="Graphic_109">
        <path d="M 502.8055 402.8225 L 502.8055 412.8225 L 502.8055 504.8225 L 503.3055 504.3225 L 430.6551 504.3225 C 430.37896 504.3225 430.1551 504.54634 430.1551 504.8225 C 430.1551 505.0986 430.37896 505.3225 430.6551 505.3225 L 503.3055 505.3225 C 503.58166 505.3225 503.8055 505.0986 503.8055 504.8225 L 503.8055 412.8225 L 503.8055 402.8225 C 503.8055 402.54634 503.58166 402.3225 503.3055 402.3225 C 503.0294 402.3225 502.8055 402.54634 502.8055 402.8225 Z M 422.6551 505.3225 L 430.6551 505.3225 L 430.6551 504.3225 L 422.6551 504.3225 Z M 427.00866 508.46893 L 423.00866 504.46893 L 423.00866 505.17604 L 427.00866 501.17604 L 426.30155 500.46893 L 422.30155 504.46893 L 421.948 504.8225 L 422.30155 505.17604 L 426.30155 509.17604 Z" fill="#616161"/>
      </g>
    </g>
  </g>
</svg>
